%YAML 1.1
%TAG !u! tag:unity3d.com,2011:
--- !u!74 &7400000
AnimationClip:
  m_ObjectHideFlags: 0
  m_CorrespondingSourceObject: {fileID: 0}
  m_PrefabInstance: {fileID: 0}
  m_PrefabAsset: {fileID: 0}
  m_Name: Trick
  serializedVersion: 6
  m_Legacy: 0
  m_Compressed: 0
  m_UseHighQualityCurve: 1
  m_RotationCurves: []
  m_CompressedRotationCurves: []
  m_EulerCurves: []
  m_PositionCurves: []
  m_ScaleCurves: []
  m_FloatCurves: []
  m_PPtrCurves:
  - curve:
    - time: 0
      value: {fileID: 2634687990294488629, guid: 38b31c722d1f44662838a0b4c2444110,
        type: 3}
    - time: 0.04
      value: {fileID: -2190178100024927987, guid: 38b31c722d1f44662838a0b4c2444110,
        type: 3}
    - time: 0.08
      value: {fileID: -6369402709816977218, guid: 38b31c722d1f44662838a0b4c2444110,
        type: 3}
    - time: 0.12
      value: {fileID: 1340708265979714319, guid: 38b31c722d1f44662838a0b4c2444110,
        type: 3}
    - time: 0.16
      value: {fileID: 700172493123809908, guid: 38b31c722d1f44662838a0b4c2444110,
        type: 3}
    - time: 0.2
      value: {fileID: -5487718618988780172, guid: 38b31c722d1f44662838a0b4c2444110,
        type: 3}
    - time: 0.24
      value: {fileID: -4410505735886222196, guid: 38b31c722d1f44662838a0b4c2444110,
        type: 3}
    - time: 0.28
      value: {fileID: 6208726696821052782, guid: 38b31c722d1f44662838a0b4c2444110,
        type: 3}
    - time: 0.32
      value: {fileID: -4080848563842683976, guid: 38b31c722d1f44662838a0b4c2444110,
        type: 3}
    - time: 0.36
      value: {fileID: -8553460580614145852, guid: 38b31c722d1f44662838a0b4c2444110,
        type: 3}
    - time: 0.4
      value: {fileID: 5804233580630300268, guid: 38b31c722d1f44662838a0b4c2444110,
        type: 3}
    - time: 0.44
      value: {fileID: -8447326189344270665, guid: 38b31c722d1f44662838a0b4c2444110,
        type: 3}
    - time: 0.48
      value: {fileID: -2449995753478055970, guid: 38b31c722d1f44662838a0b4c2444110,
        type: 3}
    - time: 0.52
      value: {fileID: 5353094170485576106, guid: 38b31c722d1f44662838a0b4c2444110,
        type: 3}
    - time: 0.56
      value: {fileID: -8689343660722879577, guid: 38b31c722d1f44662838a0b4c2444110,
        type: 3}
    - time: 0.6
      value: {fileID: 8493534531208158977, guid: 38b31c722d1f44662838a0b4c2444110,
        type: 3}
    - time: 0.64
      value: {fileID: -6065117773846751701, guid: 38b31c722d1f44662838a0b4c2444110,
        type: 3}
    - time: 0.68
      value: {fileID: 3657903456614805043, guid: 38b31c722d1f44662838a0b4c2444110,
        type: 3}
    - time: 0.72
      value: {fileID: -5806693692915977828, guid: 38b31c722d1f44662838a0b4c2444110,
        type: 3}
    - time: 0.76
      value: {fileID: -5895208653625343674, guid: 38b31c722d1f44662838a0b4c2444110,
        type: 3}
    - time: 0.8
      value: {fileID: -4188205700197852766, guid: 38b31c722d1f44662838a0b4c2444110,
        type: 3}
    - time: 0.84
      value: {fileID: 4005031455452900844, guid: 38b31c722d1f44662838a0b4c2444110,
        type: 3}
    - time: 0.88
      value: {fileID: -3716165554237414134, guid: 38b31c722d1f44662838a0b4c2444110,
        type: 3}
    - time: 0.92
      value: {fileID: 4921103519826516368, guid: 38b31c722d1f44662838a0b4c2444110,
        type: 3}
    - time: 0.96
      value: {fileID: 2628281092385741351, guid: 38b31c722d1f44662838a0b4c2444110,
        type: 3}
    - time: 1
      value: {fileID: 2855902817853149123, guid: 38b31c722d1f44662838a0b4c2444110,
        type: 3}
    - time: 1.04
      value: {fileID: -1470553973102403813, guid: 38b31c722d1f44662838a0b4c2444110,
        type: 3}
    - time: 1.08
      value: {fileID: -7528981332935482959, guid: 38b31c722d1f44662838a0b4c2444110,
        type: 3}
    - time: 1.12
      value: {fileID: -3261077910650735128, guid: 38b31c722d1f44662838a0b4c2444110,
        type: 3}
    attribute: m_Sprite
    path: 
    classID: 212
    script: {fileID: 0}
  m_SampleRate: 25
  m_WrapMode: 0
  m_Bounds:
    m_Center: {x: 0, y: 0, z: 0}
    m_Extent: {x: 0, y: 0, z: 0}
  m_ClipBindingConstant:
    genericBindings:
    - serializedVersion: 2
      path: 0
      attribute: 0
      script: {fileID: 0}
      typeID: 212
      customType: 23
      isPPtrCurve: 1
    pptrCurveMapping:
    - {fileID: 2634687990294488629, guid: 38b31c722d1f44662838a0b4c2444110, type: 3}
    - {fileID: -2190178100024927987, guid: 38b31c722d1f44662838a0b4c2444110, type: 3}
    - {fileID: -6369402709816977218, guid: 38b31c722d1f44662838a0b4c2444110, type: 3}
    - {fileID: 1340708265979714319, guid: 38b31c722d1f44662838a0b4c2444110, type: 3}
    - {fileID: 700172493123809908, guid: 38b31c722d1f44662838a0b4c2444110, type: 3}
    - {fileID: -5487718618988780172, guid: 38b31c722d1f44662838a0b4c2444110, type: 3}
    - {fileID: -4410505735886222196, guid: 38b31c722d1f44662838a0b4c2444110, type: 3}
    - {fileID: 6208726696821052782, guid: 38b31c722d1f44662838a0b4c2444110, type: 3}
    - {fileID: -4080848563842683976, guid: 38b31c722d1f44662838a0b4c2444110, type: 3}
    - {fileID: -8553460580614145852, guid: 38b31c722d1f44662838a0b4c2444110, type: 3}
    - {fileID: 5804233580630300268, guid: 38b31c722d1f44662838a0b4c2444110, type: 3}
    - {fileID: -8447326189344270665, guid: 38b31c722d1f44662838a0b4c2444110, type: 3}
    - {fileID: -2449995753478055970, guid: 38b31c722d1f44662838a0b4c2444110, type: 3}
    - {fileID: 5353094170485576106, guid: 38b31c722d1f44662838a0b4c2444110, type: 3}
    - {fileID: -8689343660722879577, guid: 38b31c722d1f44662838a0b4c2444110, type: 3}
    - {fileID: 8493534531208158977, guid: 38b31c722d1f44662838a0b4c2444110, type: 3}
    - {fileID: -6065117773846751701, guid: 38b31c722d1f44662838a0b4c2444110, type: 3}
    - {fileID: 3657903456614805043, guid: 38b31c722d1f44662838a0b4c2444110, type: 3}
    - {fileID: -5806693692915977828, guid: 38b31c722d1f44662838a0b4c2444110, type: 3}
    - {fileID: -5895208653625343674, guid: 38b31c722d1f44662838a0b4c2444110, type: 3}
    - {fileID: -4188205700197852766, guid: 38b31c722d1f44662838a0b4c2444110, type: 3}
    - {fileID: 4005031455452900844, guid: 38b31c722d1f44662838a0b4c2444110, type: 3}
    - {fileID: -3716165554237414134, guid: 38b31c722d1f44662838a0b4c2444110, type: 3}
    - {fileID: 4921103519826516368, guid: 38b31c722d1f44662838a0b4c2444110, type: 3}
    - {fileID: 2628281092385741351, guid: 38b31c722d1f44662838a0b4c2444110, type: 3}
    - {fileID: 2855902817853149123, guid: 38b31c722d1f44662838a0b4c2444110, type: 3}
    - {fileID: -1470553973102403813, guid: 38b31c722d1f44662838a0b4c2444110, type: 3}
    - {fileID: -7528981332935482959, guid: 38b31c722d1f44662838a0b4c2444110, type: 3}
    - {fileID: -3261077910650735128, guid: 38b31c722d1f44662838a0b4c2444110, type: 3}
  m_AnimationClipSettings:
    serializedVersion: 2
    m_AdditiveReferencePoseClip: {fileID: 0}
    m_AdditiveReferencePoseTime: 0
    m_StartTime: 0
    m_StopTime: 1.16
    m_OrientationOffsetY: 0
    m_Level: 0
    m_CycleOffset: 0
    m_HasAdditiveReferencePose: 0
    m_LoopTime: 1
    m_LoopBlend: 0
    m_LoopBlendOrientation: 0
    m_LoopBlendPositionY: 0
    m_LoopBlendPositionXZ: 0
    m_KeepOriginalOrientation: 0
    m_KeepOriginalPositionY: 1
    m_KeepOriginalPositionXZ: 0
    m_HeightFromFeet: 0
    m_Mirror: 0
  m_EditorCurves: []
  m_EulerEditorCurves: []
  m_HasGenericRootTransform: 0
  m_HasMotionFloatCurves: 0
  m_Events: []
