<?xml version="1.0" encoding="utf-8"?>
<!-- Generator: Adobe Illustrator 23.0.1, SVG Export Plug-In . SVG Version: 6.00 Build 0)  -->
<svg version="1.2" baseProfile="tiny" id="Layer_1" xmlns="http://www.w3.org/2000/svg" xmlns:xlink="http://www.w3.org/1999/xlink"
	 x="0px" y="0px" viewBox="0 0 1920 1080" xml:space="preserve">
<path d="M1119.48,519.46c-29.3-5.09-62.35-3.1-92.14-3.1c-38.81,0-77.62,0.17-116.43,0.01c-15.95-0.07-32.36,1.24-48.14,3.42
	c-10.52,1.45-20.47-1.69-30.98-1.54c-4.65,0.06-8.49-0.42-13.02,0.08c-4.59,0.5-10.12-2.53-14.33-0.14
	c-5.14,2.92-4.94,12.33-4.95,17.5c-0.01,3.21,0.43,6.46-0.1,9.64c-0.44,2.69-1.78,14.93-1.76,17.76l7.69-0.2
	c9.02,0.8,18.02-1.55,27.07-0.57c15.08,1.64,30.33,0.42,45.48,1.93c13.96,1.39,27.19-1.09,41.02-1.6c10.18-0.37,20.47,0.1,30.66,0.1
	c17.34,0,34.14,1.92,51.42,1.93c13.69,0.01,27.39,0,41.08,0c9.86,0,19.72,0,29.58,0c9.35,0,19.01-0.29,28.45,0.08
	c5.94,0.24,11.88,0.37,14.94-3.76c3.49-4.7,2.83-12.5,2.72-18.45C1117.6,535.08,1121.35,526.91,1119.48,519.46z M814.91,547.35
	l-4.35-4.35c3.12-8.66,9.25-10.17,17.36-10.15c3.22,0.01,6.99-0.66,10.14-0.1c4.44,0.79,5.94,4.57,8.23,8.07
	c1,1.53,2.87,3.81,2.87,5.73c0.01,2.48-0.3,1.94-2.88,2.98c-3.4,1.37-5.42,2.41-9.27,2.19c-2.16-0.12-3.71-0.74-5.75-1.16
	c-2.21-0.44-4.04,0.03-6.2-0.24c-2.03-0.26-3.77-1.34-5.8-1.61 M862,547c-2.56-2.56,0.91-11.45,6.18-13.08
	c4.33-1.34,12.53-1.67,17.02-1.61c7.22,0.1,12.53-4.21,16.67,4.34c1.34,2.77,2.01,7.61,0.03,10.33c-1.83,2.52-6.5,2.26-9.47,2.27
	c-4.16,0.01-7.27-0.25-11.42-0.25 M950.74,530.17c3.14,5.24,8.41,14.47-1.47,16.73c-3.34,0.76-8.07-0.1-11.52-0.1
	c-3.43,0-12.33,1.76-14.57-1.45l-4.35-5.8c0.85-11.72,7.72-8.97,15.95-11.28c1.61-0.45,3.05-0.23,4.7-0.6 M1012.91,545.53
	c-1.54,2.47-7.51,1.28-9.95,1.27c-7.74-0.02-15.49,0-23.23,0l-2.9-5.8c0.18-5-0.33-8.14,5.8-8.76c2.81-0.28,5.85,0.06,8.69,0.06
	c5.79,0,11.62-1.32,15.95,2.87C1009.6,537.44,1015.33,541.63,1012.91,545.53z M1063.82,544c-0.19,3.91-1.24,4.15-5.05,4.26
	c-8.64,0.25-16.77-1.48-25.42-1.46l-1.8-7.25c0,0-1.02-7.27,2.86-9.05c2.84-1.3,5.75-1.11,9.09-1.1c3.73,0.01,14.42-1.79,17.47,0.51
	C1064.32,532.45,1064,540.32,1063.82,544z M1088.45,532.31c5.55-0.31,13.25-1.47,16.55,1.69c2.39,2.29,0.31,8.2-1.45,10.69
	c-1.88,2.68-3.42,3.37-6.38,3.59c-3.11,0.23-5.67,0.75-8.73,1.29c-5.29,0.93-12.51-0.58-11.63-7.16c0.28-2.05-2.12-5.55,1.53-8.98"
	/>
</svg>
