%YAML 1.1
%TAG !u! tag:unity3d.com,2011:
--- !u!128 &12800000
Font:
  m_ObjectHideFlags: 0
  m_CorrespondingSourceObject: {fileID: 0}
  m_PrefabInstance: {fileID: 0}
  m_PrefabAsset: {fileID: 0}
  m_Name: free_spins_counter_flaming_pearl
  serializedVersion: 5
  m_LineSpacing: 108
  m_DefaultMaterial: {fileID: 2100000, guid: 5281c6d6a83a648a38aaa8e32c1950b2, type: 2}
  m_FontSize: 0
  m_Texture: {fileID: 0}
  m_AsciiStartOffset: 0
  m_Tracking: 1
  m_CharacterSpacing: 0
  m_CharacterPadding: 1
  m_ConvertCase: 0
  m_CharacterRects:
  - serializedVersion: 2
    index: 32
    uv:
      serializedVersion: 2
      x: 0
      y: 1
      width: 0
      height: 0
    vert:
      serializedVersion: 2
      x: 0
      y: -80
      width: 0
      height: 0
    advance: 30
    flipped: 0
  - serializedVersion: 2
    index: 48
    uv:
      serializedVersion: 2
      x: 0.0020703934
      y: 0.35607678
      width: 0.20496894
      height: 0.20682305
    vert:
      serializedVersion: 2
      x: 5
      y: 0
      width: 99
      height: -97
    advance: 57
    flipped: 0
  - serializedVersion: 2
    index: 49
    uv:
      serializedVersion: 2
      x: 0.4099379
      y: 0.14712153
      width: 0.19668737
      height: 0.20469083
    vert:
      serializedVersion: 2
      x: 7
      y: 0
      width: 95
      height: -96
    advance: 57
    flipped: 0
  - serializedVersion: 2
    index: 50
    uv:
      serializedVersion: 2
      x: 0.21532091
      y: 0.57569295
      width: 0.19461697
      height: 0.20682305
    vert:
      serializedVersion: 2
      x: 6
      y: 0
      width: 94
      height: -97
    advance: 57
    flipped: 0
  - serializedVersion: 2
    index: 51
    uv:
      serializedVersion: 2
      x: 0.41407868
      y: 0.5778252
      width: 0.18840578
      height: 0.20682299
    vert:
      serializedVersion: 2
      x: 8
      y: 0
      width: 91
      height: -97
    advance: 57
    flipped: 0
  - serializedVersion: 2
    index: 52
    uv:
      serializedVersion: 2
      x: 0.6583851
      y: 0.7953092
      width: 0.20703936
      height: 0.20255864
    vert:
      serializedVersion: 2
      x: 4
      y: 0
      width: 100
      height: -95
    advance: 57
    flipped: 0
  - serializedVersion: 2
    index: 53
    uv:
      serializedVersion: 2
      x: 0.60662526
      y: 0.57995737
      width: 0.1925466
      height: 0.20682299
    vert:
      serializedVersion: 2
      x: 7
      y: 0
      width: 93
      height: -97
    advance: 57
    flipped: 0
  - serializedVersion: 2
    index: 54
    uv:
      serializedVersion: 2
      x: 0.21118012
      y: 0.35607678
      width: 0.19668737
      height: 0.20682305
    vert:
      serializedVersion: 2
      x: 7
      y: 0
      width: 95
      height: -97
    advance: 57
    flipped: 0
  - serializedVersion: 2
    index: 55
    uv:
      serializedVersion: 2
      x: 0.20703934
      y: 0.14712153
      width: 0.19875778
      height: 0.20469083
    vert:
      serializedVersion: 2
      x: 6
      y: 0
      width: 96
      height: -96
    advance: 57
    flipped: 0
  - serializedVersion: 2
    index: 56
    uv:
      serializedVersion: 2
      x: 0.0020703934
      y: 0.14498934
      width: 0.20082815
      height: 0.20682302
    vert:
      serializedVersion: 2
      x: 6
      y: 0
      width: 97
      height: -97
    advance: 57
    flipped: 0
  - serializedVersion: 2
    index: 57
    uv:
      serializedVersion: 2
      x: 0.60662526
      y: 0.36886993
      width: 0.1966874
      height: 0.20682302
    vert:
      serializedVersion: 2
      x: 6
      y: 0
      width: 95
      height: -97
    advance: 57
    flipped: 0
  - serializedVersion: 2
    index: 70
    uv:
      serializedVersion: 2
      x: 0.79710144
      y: 0.0021321923
      width: 0.17184263
      height: 0.19402985
    vert:
      serializedVersion: 2
      x: 7
      y: -5
      width: 83
      height: -91
    advance: 42
    flipped: 0
  - serializedVersion: 2
    index: 82
    uv:
      serializedVersion: 2
      x: 0.8074534
      y: 0.3965885
      width: 0.19047618
      height: 0.19402987
    vert:
      serializedVersion: 2
      x: 7
      y: -5
      width: 92
      height: -91
    advance: 52
    flipped: 0
  - serializedVersion: 2
    index: 69
    uv:
      serializedVersion: 2
      x: 0.8033126
      y: 0.5948827
      width: 0.16977227
      height: 0.19616205
    vert:
      serializedVersion: 2
      x: 7
      y: -5
      width: 82
      height: -92
    advance: 43
    flipped: 0
  - serializedVersion: 2
    index: 83
    uv:
      serializedVersion: 2
      x: 0.4120083
      y: 0.37526652
      width: 0.17391306
      height: 0.19616202
    vert:
      serializedVersion: 2
      x: 5
      y: -5
      width: 84
      height: -92
    advance: 43
    flipped: 0
  - serializedVersion: 2
    index: 80
    uv:
      serializedVersion: 2
      x: 0.61076605
      y: 0.1705757
      width: 0.18219459
      height: 0.19402985
    vert:
      serializedVersion: 2
      x: 7
      y: -5
      width: 88
      height: -91
    advance: 50
    flipped: 0
  - serializedVersion: 2
    index: 73
    uv:
      serializedVersion: 2
      x: 0.8695652
      y: 0.80597013
      width: 0.12836438
      height: 0.19189769
    vert:
      serializedVersion: 2
      x: 8
      y: -5
      width: 62
      height: -90
    advance: 26
    flipped: 0
  - serializedVersion: 2
    index: 78
    uv:
      serializedVersion: 2
      x: 0.8074534
      y: 0.20042643
      width: 0.19047618
      height: 0.19189766
    vert:
      serializedVersion: 2
      x: 7
      y: -5
      width: 92
      height: -90
    advance: 58
    flipped: 0
  - serializedVersion: 2
    index: 20813
    uv:
      serializedVersion: 2
      x: 0.0020703934
      y: 0.78678036
      width: 0.21325052
      height: 0.2110874
    vert:
      serializedVersion: 2
      x: 7
      y: 2
      width: 103
      height: -99
    advance: 73
    flipped: 0
  - serializedVersion: 2
    index: 36153
    uv:
      serializedVersion: 2
      x: 0.0020703934
      y: 0.5671642
      width: 0.20910972
      height: 0.21535182
    vert:
      serializedVersion: 2
      x: 7
      y: 3
      width: 101
      height: -101
    advance: 73
    flipped: 0
  - serializedVersion: 2
    index: 28216
    uv:
      serializedVersion: 2
      x: 0.4389234
      y: 0.7910448
      width: 0.21532091
      height: 0.20682305
    vert:
      serializedVersion: 2
      x: 7
      y: -3
      width: 104
      height: -97
    advance: 73
    flipped: 0
  - serializedVersion: 2
    index: 25103
    uv:
      serializedVersion: 2
      x: 0.2194617
      y: 0.7889126
      width: 0.21532093
      height: 0.20895523
    vert:
      serializedVersion: 2
      x: 7
      y: -3
      width: 104
      height: -98
    advance: 73
    flipped: 0
  m_KerningValues: []
  m_PixelScale: 0.1
  m_FontData: 
  m_Ascent: 0
  m_Descent: 0
  m_DefaultStyle: 0
  m_FontNames: []
  m_FallbackFonts: []
  m_FontRenderingMode: 0
  m_UseLegacyBoundsCalculation: 0
  m_ShouldRoundAdvanceValue: 1
